12 11
# Vertices
2 3 7 8 9 18 14
0 1 4 8 9 13 15
0 4 8 9 13 14 15
2 3 5 8 9 14 15
0 4 8 9 12 13 14
3 14 6 15
0 4 8 10 11 12 14
3 19 5 13
3 5 8 9 13 14 15
17 4 15
0 9 4 16
0 5 8 9 13 14 15
# Edges
0 3
1 10
1 9
2 1
2 4
3 8
6 4
8 11
8 5
8 7
11 2
